<?xml version="1.0" encoding="UTF-8"?>
<testsuite xmlns:xsi="http://www.w3.org/2001/XMLSchema-instance" xsi:noNamespaceSchemaLocation="https://maven.apache.org/surefire/maven-surefire-plugin/xsd/surefire-test-report-3.0.xsd" version="3.0" name="com.pdi.tests.functional.AcompanhamentoFunctionalTest" time="0.265" tests="1" errors="0" skipped="0" failures="0">
  <properties>
    <property name="java.specification.version" value="20"/>
    <property name="sun.cpu.isalist" value="amd64"/>
    <property name="sun.jnu.encoding" value="Cp1252"/>
    <property name="java.class.path" value="C:\Users\Pedro Leotte Bersch\Desktop\pdi-qa-api\target\test-classes;C:\Users\Pedro Leotte Bersch\Desktop\pdi-qa-api\target\classes;C:\Users\Pedro Leotte Bersch\.m2\repository\io\rest-assured\rest-assured\5.4.0\rest-assured-5.4.0.jar;C:\Users\Pedro Leotte Bersch\.m2\repository\org\apache\groovy\groovy\4.0.16\groovy-4.0.16.jar;C:\Users\Pedro Leotte Bersch\.m2\repository\org\apache\groovy\groovy-xml\4.0.16\groovy-xml-4.0.16.jar;C:\Users\Pedro Leotte Bersch\.m2\repository\org\apache\httpcomponents\httpclient\4.5.13\httpclient-4.5.13.jar;C:\Users\Pedro Leotte Bersch\.m2\repository\org\apache\httpcomponents\httpcore\4.4.13\httpcore-4.4.13.jar;C:\Users\Pedro Leotte Bersch\.m2\repository\commons-logging\commons-logging\1.2\commons-logging-1.2.jar;C:\Users\Pedro Leotte Bersch\.m2\repository\commons-codec\commons-codec\1.11\commons-codec-1.11.jar;C:\Users\Pedro Leotte Bersch\.m2\repository\org\apache\httpcomponents\httpmime\4.5.13\httpmime-4.5.13.jar;C:\Users\Pedro Leotte Bersch\.m2\repository\org\hamcrest\hamcrest\2.2\hamcrest-2.2.jar;C:\Users\Pedro Leotte Bersch\.m2\repository\org\ccil\cowan\tagsoup\tagsoup\1.2.1\tagsoup-1.2.1.jar;C:\Users\Pedro Leotte Bersch\.m2\repository\io\rest-assured\json-path\5.4.0\json-path-5.4.0.jar;C:\Users\Pedro Leotte Bersch\.m2\repository\org\apache\groovy\groovy-json\4.0.16\groovy-json-4.0.16.jar;C:\Users\Pedro Leotte Bersch\.m2\repository\io\rest-assured\rest-assured-common\5.4.0\rest-assured-common-5.4.0.jar;C:\Users\Pedro Leotte Bersch\.m2\repository\io\rest-assured\xml-path\5.4.0\xml-path-5.4.0.jar;C:\Users\Pedro Leotte Bersch\.m2\repository\org\junit\jupiter\junit-jupiter\5.10.0\junit-jupiter-5.10.0.jar;C:\Users\Pedro Leotte Bersch\.m2\repository\org\junit\jupiter\junit-jupiter-api\5.10.0\junit-jupiter-api-5.10.0.jar;C:\Users\Pedro Leotte Bersch\.m2\repository\org\opentest4j\opentest4j\1.3.0\opentest4j-1.3.0.jar;C:\Users\Pedro Leotte Bersch\.m2\repository\org\junit\platform\junit-platform-commons\1.10.0\junit-platform-commons-1.10.0.jar;C:\Users\Pedro Leotte Bersch\.m2\repository\org\apiguardian\apiguardian-api\1.1.2\apiguardian-api-1.1.2.jar;C:\Users\Pedro Leotte Bersch\.m2\repository\org\junit\jupiter\junit-jupiter-params\5.10.0\junit-jupiter-params-5.10.0.jar;C:\Users\Pedro Leotte Bersch\.m2\repository\org\junit\jupiter\junit-jupiter-engine\5.10.0\junit-jupiter-engine-5.10.0.jar;C:\Users\Pedro Leotte Bersch\.m2\repository\org\junit\platform\junit-platform-engine\1.10.0\junit-platform-engine-1.10.0.jar;C:\Users\Pedro Leotte Bersch\.m2\repository\io\rest-assured\json-schema-validator\5.4.0\json-schema-validator-5.4.0.jar;C:\Users\Pedro Leotte Bersch\.m2\repository\com\github\java-json-tools\json-schema-validator\2.2.14\json-schema-validator-2.2.14.jar;C:\Users\Pedro Leotte Bersch\.m2\repository\com\github\java-json-tools\jackson-coreutils-equivalence\1.0\jackson-coreutils-equivalence-1.0.jar;C:\Users\Pedro Leotte Bersch\.m2\repository\com\fasterxml\jackson\core\jackson-databind\2.11.0\jackson-databind-2.11.0.jar;C:\Users\Pedro Leotte Bersch\.m2\repository\com\fasterxml\jackson\core\jackson-annotations\2.11.0\jackson-annotations-2.11.0.jar;C:\Users\Pedro Leotte Bersch\.m2\repository\com\fasterxml\jackson\core\jackson-core\2.11.0\jackson-core-2.11.0.jar;C:\Users\Pedro Leotte Bersch\.m2\repository\com\github\java-json-tools\jackson-coreutils\2.0\jackson-coreutils-2.0.jar;C:\Users\Pedro Leotte Bersch\.m2\repository\com\github\java-json-tools\msg-simple\1.2\msg-simple-1.2.jar;C:\Users\Pedro Leotte Bersch\.m2\repository\com\github\java-json-tools\btf\1.3\btf-1.3.jar;C:\Users\Pedro Leotte Bersch\.m2\repository\com\github\java-json-tools\json-schema-core\1.2.14\json-schema-core-1.2.14.jar;C:\Users\Pedro Leotte Bersch\.m2\repository\com\github\java-json-tools\uri-template\0.10\uri-template-0.10.jar;C:\Users\Pedro Leotte Bersch\.m2\repository\org\mozilla\rhino\1.7.7.2\rhino-1.7.7.2.jar;C:\Users\Pedro Leotte Bersch\.m2\repository\com\sun\mail\mailapi\1.6.2\mailapi-1.6.2.jar;C:\Users\Pedro Leotte Bersch\.m2\repository\joda-time\joda-time\2.10.5\joda-time-2.10.5.jar;C:\Users\Pedro Leotte Bersch\.m2\repository\com\googlecode\libphonenumber\libphonenumber\8.11.1\libphonenumber-8.11.1.jar;C:\Users\Pedro Leotte Bersch\.m2\repository\com\google\code\findbugs\jsr305\3.0.2\jsr305-3.0.2.jar;C:\Users\Pedro Leotte Bersch\.m2\repository\net\sf\jopt-simple\jopt-simple\5.0.4\jopt-simple-5.0.4.jar;C:\Users\Pedro Leotte Bersch\.m2\repository\com\google\guava\guava\32.0.1-jre\guava-32.0.1-jre.jar;C:\Users\Pedro Leotte Bersch\.m2\repository\com\google\guava\failureaccess\1.0.1\failureaccess-1.0.1.jar;C:\Users\Pedro Leotte Bersch\.m2\repository\com\google\guava\listenablefuture\9999.0-empty-to-avoid-conflict-with-guava\listenablefuture-9999.0-empty-to-avoid-conflict-with-guava.jar;C:\Users\Pedro Leotte Bersch\.m2\repository\org\checkerframework\checker-qual\3.33.0\checker-qual-3.33.0.jar;C:\Users\Pedro Leotte Bersch\.m2\repository\com\google\errorprone\error_prone_annotations\2.18.0\error_prone_annotations-2.18.0.jar;C:\Users\Pedro Leotte Bersch\.m2\repository\com\google\j2objc\j2objc-annotations\2.8\j2objc-annotations-2.8.jar;C:\Users\Pedro Leotte Bersch\.m2\repository\com\github\javafaker\javafaker\1.0.2\javafaker-1.0.2.jar;C:\Users\Pedro Leotte Bersch\.m2\repository\org\apache\commons\commons-lang3\3.5\commons-lang3-3.5.jar;C:\Users\Pedro Leotte Bersch\.m2\repository\org\yaml\snakeyaml\1.23\snakeyaml-1.23-android.jar;C:\Users\Pedro Leotte Bersch\.m2\repository\com\github\mifmif\generex\1.0.2\generex-1.0.2.jar;C:\Users\Pedro Leotte Bersch\.m2\repository\dk\brics\automaton\automaton\1.11-8\automaton-1.11-8.jar;C:\Users\Pedro Leotte Bersch\.m2\repository\org\projectlombok\lombok\1.18.24\lombok-1.18.24.jar;C:\Users\Pedro Leotte Bersch\.m2\repository\io\qameta\allure\allure-junit5\2.25.0\allure-junit5-2.25.0.jar;C:\Users\Pedro Leotte Bersch\.m2\repository\io\qameta\allure\allure-junit-platform\2.25.0\allure-junit-platform-2.25.0.jar;C:\Users\Pedro Leotte Bersch\.m2\repository\io\qameta\allure\allure-java-commons\2.25.0\allure-java-commons-2.25.0.jar;C:\Users\Pedro Leotte Bersch\.m2\repository\org\slf4j\slf4j-api\1.7.36\slf4j-api-1.7.36.jar;C:\Users\Pedro Leotte Bersch\.m2\repository\io\qameta\allure\allure-model\2.25.0\allure-model-2.25.0.jar;C:\Users\Pedro Leotte Bersch\.m2\repository\io\qameta\allure\allure-test-filter\2.25.0\allure-test-filter-2.25.0.jar;C:\Users\Pedro Leotte Bersch\.m2\repository\org\junit\platform\junit-platform-launcher\1.9.2\junit-platform-launcher-1.9.2.jar;"/>
    <property name="java.vm.vendor" value="Amazon.com Inc."/>
    <property name="sun.arch.data.model" value="64"/>
    <property name="user.variant" value=""/>
    <property name="java.vendor.url" value="https://aws.amazon.com/corretto/"/>
    <property name="user.timezone" value="America/Sao_Paulo"/>
    <property name="os.name" value="Windows 11"/>
    <property name="java.vm.specification.version" value="20"/>
    <property name="sun.java.launcher" value="SUN_STANDARD"/>
    <property name="user.country" value="BR"/>
    <property name="sun.boot.library.path" value="C:\Users\Pedro Leotte Bersch\.jdks\corretto-20.0.2.1\bin"/>
    <property name="sun.java.command" value="C:\Users\Pedro Leotte Bersch\AppData\Local\Temp\surefire15968373284257701758\surefirebooter-20240303184822452_3.jar C:\Users\Pedro Leotte Bersch\AppData\Local\Temp\surefire15968373284257701758 2024-03-03T18-48-22_228-jvmRun1 surefire-20240303184822452_1tmp surefire_0-20240303184822452_2tmp"/>
    <property name="jdk.debug" value="release"/>
    <property name="surefire.test.class.path" value="C:\Users\Pedro Leotte Bersch\Desktop\pdi-qa-api\target\test-classes;C:\Users\Pedro Leotte Bersch\Desktop\pdi-qa-api\target\classes;C:\Users\Pedro Leotte Bersch\.m2\repository\io\rest-assured\rest-assured\5.4.0\rest-assured-5.4.0.jar;C:\Users\Pedro Leotte Bersch\.m2\repository\org\apache\groovy\groovy\4.0.16\groovy-4.0.16.jar;C:\Users\Pedro Leotte Bersch\.m2\repository\org\apache\groovy\groovy-xml\4.0.16\groovy-xml-4.0.16.jar;C:\Users\Pedro Leotte Bersch\.m2\repository\org\apache\httpcomponents\httpclient\4.5.13\httpclient-4.5.13.jar;C:\Users\Pedro Leotte Bersch\.m2\repository\org\apache\httpcomponents\httpcore\4.4.13\httpcore-4.4.13.jar;C:\Users\Pedro Leotte Bersch\.m2\repository\commons-logging\commons-logging\1.2\commons-logging-1.2.jar;C:\Users\Pedro Leotte Bersch\.m2\repository\commons-codec\commons-codec\1.11\commons-codec-1.11.jar;C:\Users\Pedro Leotte Bersch\.m2\repository\org\apache\httpcomponents\httpmime\4.5.13\httpmime-4.5.13.jar;C:\Users\Pedro Leotte Bersch\.m2\repository\org\hamcrest\hamcrest\2.2\hamcrest-2.2.jar;C:\Users\Pedro Leotte Bersch\.m2\repository\org\ccil\cowan\tagsoup\tagsoup\1.2.1\tagsoup-1.2.1.jar;C:\Users\Pedro Leotte Bersch\.m2\repository\io\rest-assured\json-path\5.4.0\json-path-5.4.0.jar;C:\Users\Pedro Leotte Bersch\.m2\repository\org\apache\groovy\groovy-json\4.0.16\groovy-json-4.0.16.jar;C:\Users\Pedro Leotte Bersch\.m2\repository\io\rest-assured\rest-assured-common\5.4.0\rest-assured-common-5.4.0.jar;C:\Users\Pedro Leotte Bersch\.m2\repository\io\rest-assured\xml-path\5.4.0\xml-path-5.4.0.jar;C:\Users\Pedro Leotte Bersch\.m2\repository\org\junit\jupiter\junit-jupiter\5.10.0\junit-jupiter-5.10.0.jar;C:\Users\Pedro Leotte Bersch\.m2\repository\org\junit\jupiter\junit-jupiter-api\5.10.0\junit-jupiter-api-5.10.0.jar;C:\Users\Pedro Leotte Bersch\.m2\repository\org\opentest4j\opentest4j\1.3.0\opentest4j-1.3.0.jar;C:\Users\Pedro Leotte Bersch\.m2\repository\org\junit\platform\junit-platform-commons\1.10.0\junit-platform-commons-1.10.0.jar;C:\Users\Pedro Leotte Bersch\.m2\repository\org\apiguardian\apiguardian-api\1.1.2\apiguardian-api-1.1.2.jar;C:\Users\Pedro Leotte Bersch\.m2\repository\org\junit\jupiter\junit-jupiter-params\5.10.0\junit-jupiter-params-5.10.0.jar;C:\Users\Pedro Leotte Bersch\.m2\repository\org\junit\jupiter\junit-jupiter-engine\5.10.0\junit-jupiter-engine-5.10.0.jar;C:\Users\Pedro Leotte Bersch\.m2\repository\org\junit\platform\junit-platform-engine\1.10.0\junit-platform-engine-1.10.0.jar;C:\Users\Pedro Leotte Bersch\.m2\repository\io\rest-assured\json-schema-validator\5.4.0\json-schema-validator-5.4.0.jar;C:\Users\Pedro Leotte Bersch\.m2\repository\com\github\java-json-tools\json-schema-validator\2.2.14\json-schema-validator-2.2.14.jar;C:\Users\Pedro Leotte Bersch\.m2\repository\com\github\java-json-tools\jackson-coreutils-equivalence\1.0\jackson-coreutils-equivalence-1.0.jar;C:\Users\Pedro Leotte Bersch\.m2\repository\com\fasterxml\jackson\core\jackson-databind\2.11.0\jackson-databind-2.11.0.jar;C:\Users\Pedro Leotte Bersch\.m2\repository\com\fasterxml\jackson\core\jackson-annotations\2.11.0\jackson-annotations-2.11.0.jar;C:\Users\Pedro Leotte Bersch\.m2\repository\com\fasterxml\jackson\core\jackson-core\2.11.0\jackson-core-2.11.0.jar;C:\Users\Pedro Leotte Bersch\.m2\repository\com\github\java-json-tools\jackson-coreutils\2.0\jackson-coreutils-2.0.jar;C:\Users\Pedro Leotte Bersch\.m2\repository\com\github\java-json-tools\msg-simple\1.2\msg-simple-1.2.jar;C:\Users\Pedro Leotte Bersch\.m2\repository\com\github\java-json-tools\btf\1.3\btf-1.3.jar;C:\Users\Pedro Leotte Bersch\.m2\repository\com\github\java-json-tools\json-schema-core\1.2.14\json-schema-core-1.2.14.jar;C:\Users\Pedro Leotte Bersch\.m2\repository\com\github\java-json-tools\uri-template\0.10\uri-template-0.10.jar;C:\Users\Pedro Leotte Bersch\.m2\repository\org\mozilla\rhino\1.7.7.2\rhino-1.7.7.2.jar;C:\Users\Pedro Leotte Bersch\.m2\repository\com\sun\mail\mailapi\1.6.2\mailapi-1.6.2.jar;C:\Users\Pedro Leotte Bersch\.m2\repository\joda-time\joda-time\2.10.5\joda-time-2.10.5.jar;C:\Users\Pedro Leotte Bersch\.m2\repository\com\googlecode\libphonenumber\libphonenumber\8.11.1\libphonenumber-8.11.1.jar;C:\Users\Pedro Leotte Bersch\.m2\repository\com\google\code\findbugs\jsr305\3.0.2\jsr305-3.0.2.jar;C:\Users\Pedro Leotte Bersch\.m2\repository\net\sf\jopt-simple\jopt-simple\5.0.4\jopt-simple-5.0.4.jar;C:\Users\Pedro Leotte Bersch\.m2\repository\com\google\guava\guava\32.0.1-jre\guava-32.0.1-jre.jar;C:\Users\Pedro Leotte Bersch\.m2\repository\com\google\guava\failureaccess\1.0.1\failureaccess-1.0.1.jar;C:\Users\Pedro Leotte Bersch\.m2\repository\com\google\guava\listenablefuture\9999.0-empty-to-avoid-conflict-with-guava\listenablefuture-9999.0-empty-to-avoid-conflict-with-guava.jar;C:\Users\Pedro Leotte Bersch\.m2\repository\org\checkerframework\checker-qual\3.33.0\checker-qual-3.33.0.jar;C:\Users\Pedro Leotte Bersch\.m2\repository\com\google\errorprone\error_prone_annotations\2.18.0\error_prone_annotations-2.18.0.jar;C:\Users\Pedro Leotte Bersch\.m2\repository\com\google\j2objc\j2objc-annotations\2.8\j2objc-annotations-2.8.jar;C:\Users\Pedro Leotte Bersch\.m2\repository\com\github\javafaker\javafaker\1.0.2\javafaker-1.0.2.jar;C:\Users\Pedro Leotte Bersch\.m2\repository\org\apache\commons\commons-lang3\3.5\commons-lang3-3.5.jar;C:\Users\Pedro Leotte Bersch\.m2\repository\org\yaml\snakeyaml\1.23\snakeyaml-1.23-android.jar;C:\Users\Pedro Leotte Bersch\.m2\repository\com\github\mifmif\generex\1.0.2\generex-1.0.2.jar;C:\Users\Pedro Leotte Bersch\.m2\repository\dk\brics\automaton\automaton\1.11-8\automaton-1.11-8.jar;C:\Users\Pedro Leotte Bersch\.m2\repository\org\projectlombok\lombok\1.18.24\lombok-1.18.24.jar;C:\Users\Pedro Leotte Bersch\.m2\repository\io\qameta\allure\allure-junit5\2.25.0\allure-junit5-2.25.0.jar;C:\Users\Pedro Leotte Bersch\.m2\repository\io\qameta\allure\allure-junit-platform\2.25.0\allure-junit-platform-2.25.0.jar;C:\Users\Pedro Leotte Bersch\.m2\repository\io\qameta\allure\allure-java-commons\2.25.0\allure-java-commons-2.25.0.jar;C:\Users\Pedro Leotte Bersch\.m2\repository\org\slf4j\slf4j-api\1.7.36\slf4j-api-1.7.36.jar;C:\Users\Pedro Leotte Bersch\.m2\repository\io\qameta\allure\allure-model\2.25.0\allure-model-2.25.0.jar;C:\Users\Pedro Leotte Bersch\.m2\repository\io\qameta\allure\allure-test-filter\2.25.0\allure-test-filter-2.25.0.jar;C:\Users\Pedro Leotte Bersch\.m2\repository\org\junit\platform\junit-platform-launcher\1.9.2\junit-platform-launcher-1.9.2.jar;"/>
    <property name="sun.cpu.endian" value="little"/>
    <property name="user.home" value="C:\Users\Pedro Leotte Bersch"/>
    <property name="user.language" value="pt"/>
    <property name="java.specification.vendor" value="Oracle Corporation"/>
    <property name="java.version.date" value="2023-08-22"/>
    <property name="java.home" value="C:\Users\Pedro Leotte Bersch\.jdks\corretto-20.0.2.1"/>
    <property name="file.separator" value="\"/>
    <property name="basedir" value="C:\Users\Pedro Leotte Bersch\Desktop\pdi-qa-api"/>
    <property name="java.vm.compressedOopsMode" value="Zero based"/>
    <property name="line.separator" value="&#10;"/>
    <property name="java.vm.specification.vendor" value="Oracle Corporation"/>
    <property name="java.specification.name" value="Java Platform API Specification"/>
    <property name="surefire.real.class.path" value="C:\Users\Pedro Leotte Bersch\AppData\Local\Temp\surefire15968373284257701758\surefirebooter-20240303184822452_3.jar"/>
    <property name="user.script" value=""/>
    <property name="sun.management.compiler" value="HotSpot 64-Bit Tiered Compilers"/>
    <property name="java.runtime.version" value="20.0.2.1+10-FR"/>
    <property name="user.name" value="Bersch"/>
    <property name="stdout.encoding" value="Cp1252"/>
    <property name="path.separator" value=";"/>
    <property name="os.version" value="10.0"/>
    <property name="java.runtime.name" value="OpenJDK Runtime Environment"/>
    <property name="file.encoding" value="UTF-8"/>
    <property name="java.vm.name" value="OpenJDK 64-Bit Server VM"/>
    <property name="java.vendor.version" value="Corretto-20.0.2.10.1"/>
    <property name="localRepository" value="C:\Users\Pedro Leotte Bersch\.m2\repository"/>
    <property name="java.vendor.url.bug" value="https://github.com/corretto/corretto-20/issues/"/>
    <property name="java.io.tmpdir" value="C:\Users\PEDROL~1\AppData\Local\Temp\"/>
    <property name="idea.version" value="2023.3.4"/>
    <property name="java.version" value="20.0.2.1"/>
    <property name="user.dir" value="C:\Users\Pedro Leotte Bersch\Desktop\pdi-qa-api"/>
    <property name="os.arch" value="amd64"/>
    <property name="java.vm.specification.name" value="Java Virtual Machine Specification"/>
    <property name="sun.os.patch.level" value=""/>
    <property name="native.encoding" value="Cp1252"/>
    <property name="java.library.path" value="C:\Users\Pedro Leotte Bersch\.jdks\corretto-20.0.2.1\bin;C:\WINDOWS\Sun\Java\bin;C:\WINDOWS\system32;C:\WINDOWS;C:\Program Files\Java\jdk-17\bin;C:\Program Files\Java\zulu11.64.19-ca-jdk11.0.19-win_x64\bin;C:\Program Files\Common Files\Oracle\Java\javapath;C:\Program Files (x86)\Common Files\Oracle\Java\javapath;C:\WINDOWS\system32;C:\WINDOWS;C:\WINDOWS\System32\Wbem;C:\WINDOWS\System32\WindowsPowerShell\v1.0\;C:\WINDOWS\System32\OpenSSH\;C:\Program Files\Java\jdk-19\bin;C:\Program Files\dotnet\;C:\Program Files\nodejs\;C:\ProgramData\chocolatey\bin;C:\Program Files\apache-maven-3.9.5\bin;C:\Program Files (x86)\Microsoft SQL Server\160\Tools\Binn\;C:\Program Files\Microsoft SQL Server\160\Tools\Binn\;C:\Program Files\Microsoft SQL Server\Client SDK\ODBC\170\Tools\Binn\;C:\Program Files\Microsoft SQL Server\160\DTS\Binn\;C:\Program Files\Azure Data Studio\bin;C:\Program Files\Git\cmd;C:\Program Files\Docker\Docker\resources\bin;C:\Users\Pedro Leotte Bersch\allure-2.10.0\allure-2.10.0\bin;C:\Users\Pedro Leotte Bersch\AppData\Local\Microsoft\WindowsApps;C:\Users\Pedro Leotte Bersch\AppData\Local\Programs\Microsoft VS Code\bin;C:\Program Files\Java\jdk-19\bin;C:\php;C:\Program Files\JetBrains\IntelliJ IDEA 2023.3.4\bin;;C:\Program Files\JetBrains\IntelliJ IDEA Community Edition 2023.1.2\bin;;C:\Users\Pedro Leotte Bersch\AppData\Roaming\npm;C:\Program Files\Azure Data Studio\bin;C:\Users\Pedro Leotte Bersch\allure-2.10.0\allure-2.10.0\bin;;."/>
    <property name="java.vm.info" value="mixed mode, sharing"/>
    <property name="stderr.encoding" value="Cp1252"/>
    <property name="java.vendor" value="Amazon.com Inc."/>
    <property name="java.vm.version" value="20.0.2.1+10-FR"/>
    <property name="sun.io.unicode.encoding" value="UnicodeLittle"/>
    <property name="java.class.version" value="64.0"/>
  </properties>
  <testcase name="testValidateGetAllAcompanhamentosFunctional" classname="com.pdi.tests.functional.AcompanhamentoFunctionalTest" time="0.253">
    <system-out><![CDATA[Body:			<none>
{
    "content": [
        {
            "idAcompanhamento": 1,
            "idEstagiario": 2,
            "nomeEstagiario": "Aluno teste",
            "trilha": "Frontend",
            "email": "aluno.teste@dbccompany.com.br",
            "dataInicio": "2024-04-25",
            "dataFim": "2024-05-02",
            "status": "FECHADO",
            "nome": "VemSer 12",
            "titulo": "acompanhamento teste",
            "horarioInicio": "10:00:00",
            "horarioFim": "20:00:00",
            "duracao": 10,
            "descricao": "acompanhamento pontual"
        },
        {
            "idAcompanhamento": 1,
            "idEstagiario": 71,
            "nomeEstagiario": "Isabela Santos",
            "trilha": "Frontend",
            "email": "isabela.santos@empresa.com",
            "dataInicio": "2024-04-25",
            "dataFim": "2024-05-02",
            "status": "FECHADO",
            "nome": "VemSer 12",
            "titulo": "acompanhamento teste",
            "horarioInicio": "10:00:00",
            "horarioFim": "20:00:00",
            "duracao": 10,
            "descricao": "acompanhamento pontual"
        },
        {
            "idAcompanhamento": 1,
            "idEstagiario": 66,
            "nomeEstagiario": "Gustavo Santos",
            "trilha": "Frontend",
            "email": "gustavo.santos@empresa.com",
            "dataInicio": "2024-04-25",
            "dataFim": "2024-05-02",
            "status": "FECHADO",
            "nome": "VemSer 12",
            "titulo": "acompanhamento teste",
            "horarioInicio": "10:00:00",
            "horarioFim": "20:00:00",
            "duracao": 10,
            "descricao": "acompanhamento pontual"
        },
        {
            "idAcompanhamento": 1,
            "idEstagiario": 4,
            "nomeEstagiario": "Deyvid Lucas",
            "trilha": "Frontend",
            "email": "deyvid.lucas@dbccompany.com.br",
            "dataInicio": "2024-04-25",
            "dataFim": "2024-05-02",
            "status": "FECHADO",
            "nome": "VemSer 12",
            "titulo": "acompanhamento teste",
            "horarioInicio": "10:00:00",
            "horarioFim": "20:00:00",
            "duracao": 10,
            "descricao": "acompanhamento pontual"
        },
        {
            "idAcompanhamento": 1,
            "idEstagiario": 5,
            "nomeEstagiario": "Tadeu Tavares Torres",
            "trilha": "Frontend",
            "email": "tadeu.torres@dbccompany.com.br",
            "dataInicio": "2024-04-25",
            "dataFim": "2024-05-02",
            "status": "FECHADO",
            "nome": "VemSer 12",
            "titulo": "acompanhamento teste",
            "horarioInicio": "10:00:00",
            "horarioFim": "20:00:00",
            "duracao": 10,
            "descricao": "acompanhamento pontual"
        },
        {
            "idAcompanhamento": 1,
            "idEstagiario": 6,
            "nomeEstagiario": "Aluno teste",
            "trilha": "Frontend",
            "email": "alunoteste@dbccompany.com.br",
            "dataInicio": "2024-04-25",
            "dataFim": "2024-05-02",
            "status": "FECHADO",
            "nome": "VemSer 12",
            "titulo": "acompanhamento teste",
            "horarioInicio": "10:00:00",
            "horarioFim": "20:00:00",
            "duracao": 10,
            "descricao": "acompanhamento pontual"
        },
        {
            "idAcompanhamento": 1,
            "idEstagiario": 58,
            "nomeEstagiario": "Maria Santos",
            "trilha": "Frontend",
            "email": "maria.santos@empresa.com",
            "dataInicio": "2024-04-25",
            "dataFim": "2024-05-02",
            "status": "FECHADO",
            "nome": "VemSer 12",
            "titulo": "acompanhamento teste",
            "horarioInicio": "10:00:00",
            "horarioFim": "20:00:00",
            "duracao": 10,
            "descricao": "acompanhamento pontual"
        },
        {
            "idAcompanhamento": 1,
            "idEstagiario": 59,
            "nomeEstagiario": "Carlos Oliveira",
            "trilha": "Frontend",
            "email": "carlos.oliveira@empresa.com",
            "dataInicio": "2024-04-25",
            "dataFim": "2024-05-02",
            "status": "FECHADO",
            "nome": "VemSer 12",
            "titulo": "acompanhamento teste",
            "horarioInicio": "10:00:00",
            "horarioFim": "20:00:00",
            "duracao": 10,
            "descricao": "acompanhamento pontual"
        },
        {
            "idAcompanhamento": 1,
            "idEstagiario": 67,
            "nomeEstagiario": "Fabiana Oliveira",
            "trilha": "Frontend",
            "email": "fabiana.oliveira@empresa.com",
            "dataInicio": "2024-04-25",
            "dataFim": "2024-05-02",
            "status": "FECHADO",
            "nome": "VemSer 12",
            "titulo": "acompanhamento teste",
            "horarioInicio": "10:00:00",
            "horarioFim": "20:00:00",
            "duracao": 10,
            "descricao": "acompanhamento pontual"
        },
        {
            "idAcompanhamento": 1,
            "idEstagiario": 1,
            "nomeEstagiario": "João Melo Almeida de socorro br",
            "trilha": "Frontend",
            "email": "joaomelo@dbccompany.com.br",
            "dataInicio": "2024-04-25",
            "dataFim": "2024-05-02",
            "status": "FECHADO",
            "nome": "VemSer 12",
            "titulo": "acompanhamento teste",
            "horarioInicio": "10:00:00",
            "horarioFim": "20:00:00",
            "duracao": 10,
            "descricao": "acompanhamento pontual"
        }
    ],
    "pageable": {
        "sort": {
            "empty": true,
            "sorted": false,
            "unsorted": true
        },
        "offset": 0,
        "pageNumber": 0,
        "pageSize": 10,
        "paged": true,
        "unpaged": false
    },
    "last": false,
    "totalPages": 26,
    "totalElements": 253,
    "size": 10,
    "number": 0,
    "sort": {
        "empty": true,
        "sorted": false,
        "unsorted": true
    },
    "first": true,
    "numberOfElements": 10,
    "empty": false
}
]]></system-out>
  </testcase>
</testsuite>